3 40
6 8
416 125
416 15
1000 19
0 0
123 67 17
66 10 -312
39 311 55
5 8.5 99
123 0 456
1234567890 1234567890
0 123 456
123 456 0
1
1 2
ASD
5 -12.7 -42
8424 243 89745
ASDASDWWWW
999999999 999999999
W
sdsdsd sd
sd

-1-1-1-1-1-1-212
sdaD  QWE WE
999999999 9999999999
\R\B\TA\
s
sd
1234567890 9876543210
sdsd

